<?xml version="1.0" encoding="UTF-8"?>
<svg width="101px" height="102px" viewBox="0 0 101 102" version="1.1" xmlns="http://www.w3.org/2000/svg" xmlns:xlink="http://www.w3.org/1999/xlink">
    <title>services_science-based-nutrition</title>
    <g id="Page-1" stroke="none" stroke-width="1" fill="none" fill-rule="evenodd">
        <g id="Artboard" transform="translate(-2692.000000, -2687.000000)">
            <g id="services_science-based-nutrition" transform="translate(2692.000000, 2688.000000)">
                <polygon id="Path" stroke="#FFFFFF" points="0.5 100.317 100.5 100.317 100.5 0.317 0.5 0.317"></polygon>
                <path d="M59.207,44.364 C57.393,38.304 53.781,31.084 50.67,26.641 C45.994,33.229 38.45,46.687 42.803,55.62 C44.006,58.088 46.747,61.61 49.708,61.66 L49.651,52.447 C49.883,50.047 49.39,50.682 51.151,50.011 C52.621,52.045 51.866,58.827 51.85,61.726 C57.66,59.775 61.649,52.515 59.207,44.364 M77.688,40.463 C77.242,40.714 63.596,44.936 62.458,45.146 C62.693,50.013 62.872,54.928 60.13,59.081 L60.114,59.106 C60.534,58.903 61.041,58.719 61.628,58.151 L66.464,52.451 C67.664,50.679 67.361,50.183 69.689,49.89 C70.097,53.63 65.106,57.611 63.199,59.544 C67.433,57.397 69.571,56.3 72.559,51.822 C73.745,50.042 77.53,42.591 77.689,40.463 M38.675,45.282 L23.848,40.33 C24.468,43.05 27.86,49.829 29.138,51.919 C29.979,53.297 32.233,55.628 33.214,56.442 C34.441,57.459 36.581,58.829 38.496,59.564 C36.738,58.229 31.537,53.092 32.011,50.253 C33.813,49.878 33.763,50.259 34.884,51.933 C35.73,53.195 36.178,53.815 37.19,54.937 C37.777,55.587 40.9,58.599 41.437,59.159 C37.85,55.239 38.891,50.498 38.676,45.282" id="Shape" fill="#FFFFFF" fill-rule="nonzero"></path>
                <path d="M41.828,67.819 L41.961,68.505 C42.975,73.741 48.867,80.941 50.436,81.378 C52.161,80.847 52.799,79.778 53.674,78.316 C54.094,77.613 54.571,76.816 55.224,76.021 C57.041,73.81 57.99,72.22 58.81,68.639 L58.961,67.979 L59.629,68.078 C59.993,68.131 60.406,68.194 60.86,68.262 C66.087,69.055 78.141,70.882 81.883,67.781 C81.463,66.47 79.994,64.881 77.688,63.258 C75.318,61.588 72.692,60.337 71.143,59.836 L69.925,59.442 L70.882,58.592 C74.288,55.568 76.105,53.482 78.545,48.396 L78.7,48.073 C81.74,41.752 83.183,37.673 82.995,35.933 L82.932,35.878 C82.748,35.866 82.508,35.851 82.195,35.828 C81.036,35.748 78.743,36.522 76.718,37.204 C74.561,37.931 72.526,38.619 71.283,38.542 L70.653,38.504 L70.598,37.874 C70.408,35.694 70.34,33.668 70.28,31.879 C70.17,28.595 70.064,25.493 69.141,25.082 C68.654,24.865 67.425,25.15 64.339,27.742 C63.385,28.545 62.54,29.109 61.724,29.652 C60.759,30.298 59.925,30.855 59.074,31.694 L58.431,32.327 L57.943,31.569 C57.273,30.527 56.591,29.229 55.87,27.857 C54.28,24.831 52.487,21.421 50.45,20.086 C48.258,21.424 44.118,28.481 43.365,30.978 L43.145,31.711 L42.421,31.457 C41.627,31.177 40.483,30.286 39.035,29.156 C36.993,27.563 34.001,25.23 32.173,25.118 L30.748,38.948 L29.922,38.733 C28.973,38.485 27.846,38.105 26.652,37.702 C23.873,36.764 20.464,35.612 18.374,35.886 L18.29,36.331 C18.286,36.386 18.28,36.449 18.272,36.514 C18.268,36.558 18.262,36.604 18.259,36.649 L18.713,38.725 C19.165,40.105 19.451,40.85 19.977,42.025 C20.381,42.925 20.733,43.79 21.072,44.625 C21.62,45.972 22.137,47.244 22.803,48.499 C24.523,51.739 27.404,57.166 30.183,58.307 L31.693,58.926 L30.225,59.641 C29.891,59.804 29.525,59.979 29.131,60.165 C25.534,61.873 19.597,64.693 19.527,68.085 C24.19,70.528 33.62,69.074 39.31,68.195 C39.971,68.095 40.583,68 41.137,67.92 L41.828,67.819 L41.828,67.819 Z M50.554,82.867 L50.424,82.857 C48.018,82.664 42.091,74.89 40.68,69.467 L39.534,69.643 C33.508,70.572 23.422,72.129 18.439,69.153 L18.124,68.965 L18.086,68.601 C17.616,64.076 24.252,60.861 28.343,58.919 C25.6,56.889 23.184,52.339 21.51,49.185 C20.81,47.864 20.278,46.559 19.716,45.177 C19.381,44.353 19.036,43.501 18.641,42.624 C18.093,41.4 17.782,40.587 17.311,39.144 L17.291,39.073 L16.7933401,36.743 C16.79,36.606 16.805,36.472 16.817,36.353 C16.823,36.308 16.828,36.263 16.829,36.229 L16.842,36.107 L17.116,34.672 L17.562,34.555 C20.007,33.914 23.786,35.189 27.12,36.315 C27.953,36.595 28.752,36.865 29.47,37.083 L30.832,23.841 L31.346,23.725 C33.756,23.184 37.182,25.855 39.936,28.002 C40.806,28.681 41.642,29.334 42.259,29.73 C43.587,26.429 47.697,19.549 50.217,18.57 L50.533,18.448 L50.83,18.61 C53.391,19.994 55.396,23.809 57.165,27.175 C57.705,28.202 58.222,29.185 58.72,30.033 C59.44,29.418 60.16,28.938 60.911,28.436 C61.695,27.913 62.505,27.372 63.397,26.623 C66.547,23.976 68.384,23.143 69.737,23.743 C71.497,24.529 71.595,27.433 71.743,31.829 C71.796,33.404 71.855,35.167 71.998,37.044 C73.059,36.893 74.678,36.347 76.25,35.817 C78.615,35.021 80.848,34.27 82.298,34.369 C82.876,34.409 83.203,34.427 83.378,34.436 C83.558,34.446 84.072,34.473 84.218,34.942 L84.285,34.975 L84.368,35.305 C85.006,37.844 82.379,43.801 80.018,48.708 L79.865,49.028 C77.557,53.842 75.703,56.158 72.751,58.877 C76.319,60.361 82.771,64.162 83.417,67.901 L83.48,68.268 L83.221,68.535 C79.331,72.543 66.707,70.629 60.641,69.71 L60.079,69.625 C59.226,73.024 58.17,74.742 56.355,76.95 C55.771,77.66 55.345,78.376 54.931,79.068 C53.979,80.658 53.081,82.16 50.679,82.832 L50.554,82.867 L50.554,82.867 Z" id="Shape" fill="#FFFFFF" fill-rule="nonzero"></path>
                <path d="M55.156,65.278 L50.656,65.268 C48.538,65.266 46.706,64.949 44.606,65.111 C43.626,70.957 47.456,74.426 50.656,78.261 C50.658,78.254 61.349,66.137 55.156,65.278" id="Path" fill="#FFFFFF" fill-rule="nonzero"></path>
            </g>
        </g>
    </g>
</svg>